{
    "root_group": {
        "checks": {},
        "name": "",
        "path": "",
        "id": "d41d8cd98f00b204e9800998ecf8427e",
        "groups": {}
    },
    "metrics": {
        "http_req_duration{expected_response:true}": {
            "p(90)": 101.76586,
            "p(95)": 101.831658,
            "avg": 101.60490904695298,
            "min": 101.253118,
            "med": 101.602038,
            "max": 102.361941
        },
        "http_req_connecting": {
            "min": 0,
            "med": 0,
            "max": 17.866776,
            "p(90)": 0,
            "p(95)": 0.08523,
            "avg": 0.02826285914085913
        },
        "data_sent": {
            "count": 83083,
            "rate": 1382.367205524556
        },
        "vus_max": {
            "value": 100,
            "min": 100,
            "max": 100
        },
        "iterations": {
            "rate": 16.65502657258501,
            "count": 1001
        },
        "http_req_tls_handshaking": {
            "avg": 0,
            "min": 0,
            "med": 0,
            "max": 0,
            "p(90)": 0,
            "p(95)": 0
        },
        "vus": {
            "max": 100,
            "value": 100,
            "min": 100
        },
        "http_req_waiting": {
            "max": 102.302237,
            "p(90)": 101.710766,
            "p(95)": 101.773904,
            "avg": 101.54864875424573,
            "min": 101.200943,
            "med": 101.545564
        },
        "data_received": {
            "count": 292292,
            "rate": 4863.267759194823
        },
        "http_req_duration": {
            "med": 101.602038,
            "max": 102.361941,
            "p(90)": 101.76586,
            "p(95)": 101.831658,
            "avg": 101.60490904695298,
            "min": 101.253118
        },
        "iteration_duration": {
            "min": 101.319291,
            "med": 101.693046,
            "max": 119.548604,
            "p(90)": 101.877502,
            "p(95)": 101.937739,
            "avg": 101.71464251848134
        },
        "http_req_failed": {
            "passes": 0,
            "fails": 1001,
            "value": 0
        },
        "http_reqs": {
            "rate": 16.65502657258501,
            "count": 1001
        },
        "http_req_blocked": {
            "med": 0.00333,
            "max": 17.9086,
            "p(90)": 0.015129,
            "p(95)": 0.124365,
            "avg": 0.03533197902097906,
            "min": 0.00234
        },
        "http_req_sending": {
            "max": 0.225826,
            "p(90)": 0.024387,
            "p(95)": 0.032326,
            "avg": 0.016418039960039925,
            "min": 0.008519,
            "med": 0.014209
        },
        "http_req_receiving": {
            "avg": 0.03984225274725268,
            "min": 0.022418,
            "med": 0.037515,
            "max": 0.096948,
            "p(90)": 0.050284,
            "p(95)": 0.055404
        }
    }
}