{
    "metrics": {
        "data_received": {
            "count": 292292,
            "rate": 4871.335782237476
        },
        "http_reqs": {
            "count": 1001,
            "rate": 16.68265678848451
        },
        "http_req_duration{expected_response:true}": {
            "avg": 1.528982152847151,
            "min": 0.734204,
            "med": 1.469841,
            "max": 2.77632,
            "p(90)": 2.094929,
            "p(95)": 2.196591
        },
        "http_req_tls_handshaking": {
            "avg": 0,
            "min": 0,
            "med": 0,
            "max": 0,
            "p(90)": 0,
            "p(95)": 0
        },
        "iterations": {
            "count": 1001,
            "rate": 16.68265678848451
        },
        "http_req_sending": {
            "p(90)": 0.034156,
            "p(95)": 0.046786,
            "avg": 0.02133540859140861,
            "min": 0.006743,
            "med": 0.018417,
            "max": 0.238333
        },
        "http_req_waiting": {
            "med": 1.407953,
            "max": 2.620669,
            "p(90)": 2.002674,
            "p(95)": 2.105005,
            "avg": 1.4623630659340638,
            "min": 0.700287
        },
        "vus": {
            "value": 100,
            "min": 100,
            "max": 100
        },
        "http_req_duration": {
            "p(95)": 2.196591,
            "avg": 1.528982152847151,
            "min": 0.734204,
            "med": 1.469841,
            "max": 2.77632,
            "p(90)": 2.094929
        },
        "http_req_failed": {
            "passes": 0,
            "fails": 1001,
            "value": 0
        },
        "http_req_blocked": {
            "max": 21.444414,
            "p(90)": 0.020281,
            "p(95)": 0.188328,
            "avg": 0.04463278621378624,
            "min": 0.001991,
            "med": 0.004293
        },
        "data_sent": {
            "count": 83083,
            "rate": 1384.6605134442143
        },
        "iteration_duration": {
            "p(90)": 2.300009,
            "p(95)": 2.405749,
            "avg": 1.6698263876123887,
            "min": 0.786522,
            "med": 1.578115,
            "max": 23.461631
        },
        "http_req_connecting": {
            "p(90)": 0,
            "p(95)": 0.131724,
            "avg": 0.03536521478521478,
            "min": 0,
            "med": 0,
            "max": 21.368171
        },
        "vus_max": {
            "value": 100,
            "min": 100,
            "max": 100
        },
        "http_req_receiving": {
            "med": 0.043851,
            "max": 0.133026,
            "p(90)": 0.065158,
            "p(95)": 0.071909,
            "avg": 0.045283678321678324,
            "min": 0.017647
        }
    },
    "root_group": {
        "name": "",
        "path": "",
        "id": "d41d8cd98f00b204e9800998ecf8427e",
        "groups": {},
        "checks": {}
    }
}